﻿{
    "$schema": "http://json-schema.org/schemas/2014-11-01/apiapp.json#",
    "id": "Api_Dashboard",
    "namespace": "microsoft.com",
    "gateway": "2015-01-14",
    "version": "1.0.0",
    "title": "Api_Dashboard",
    "summary": "",
    "author": "",
    "endpoints": {
        "apiDefinition": "/swagger/docs/v1",
        "status": null
    }
}